[api-updater (non-obsolete-error-filter)] 30/09/2021 17:20:28 : Starting G:/Program Files/Unity/Hub/Editor/2020.3.13f1/Editor/Data/Tools/ScriptUpdater/APIUpdater.NonObsoleteApiUpdaterDetector.exe
[api-updater (non-obsolete-error-filter)] 
----------------------------------
jit/startup time      : 405.9275ms
moved types parse time: 41ms
candidates parse time : 0ms
C# parse time         : 418ms
candidates check time : 37ms
console write time    : 0ms

[api-updater (non-obsolete-error-filter)] 02/10/2021 09:24:30 : Starting G:/Program Files/Unity/Hub/Editor/2020.3.13f1/Editor/Data/Tools/ScriptUpdater/APIUpdater.NonObsoleteApiUpdaterDetector.exe
[api-updater (non-obsolete-error-filter)] 
----------------------------------
jit/startup time      : 567.7497ms
moved types parse time: 42ms
candidates parse time : 0ms
C# parse time         : 478ms
candidates check time : 36ms
console write time    : 0ms

[api-updater (non-obsolete-error-filter)] 02/10/2021 09:48:12 : Starting G:/Program Files/Unity/Hub/Editor/2020.3.13f1/Editor/Data/Tools/ScriptUpdater/APIUpdater.NonObsoleteApiUpdaterDetector.exe
[api-updater (non-obsolete-error-filter)] 
----------------------------------
jit/startup time      : 51.0076ms
moved types parse time: 39ms
candidates parse time : 0ms
C# parse time         : 137ms
candidates check time : 35ms
console write time    : 0ms

[api-updater (non-obsolete-error-filter)] 02/10/2021 14:13:44 : Starting G:/Program Files/Unity/Hub/Editor/2020.3.13f1/Editor/Data/Tools/ScriptUpdater/APIUpdater.NonObsoleteApiUpdaterDetector.exe
[api-updater (non-obsolete-error-filter)] 
----------------------------------
jit/startup time      : 58.3438ms
moved types parse time: 39ms
candidates parse time : 0ms
C# parse time         : 138ms
candidates check time : 34ms
console write time    : 0ms

[api-updater (non-obsolete-error-filter)] 03/10/2021 10:08:44 : Starting G:/Program Files/Unity/Hub/Editor/2020.3.13f1/Editor/Data/Tools/ScriptUpdater/APIUpdater.NonObsoleteApiUpdaterDetector.exe
[api-updater (non-obsolete-error-filter)] 
----------------------------------
jit/startup time      : 564.4612ms
moved types parse time: 39ms
candidates parse time : 0ms
C# parse time         : 414ms
candidates check time : 34ms
console write time    : 0ms

[api-updater (non-obsolete-error-filter)] 03/10/2021 10:10:04 : Starting G:/Program Files/Unity/Hub/Editor/2020.3.13f1/Editor/Data/Tools/ScriptUpdater/APIUpdater.NonObsoleteApiUpdaterDetector.exe
[api-updater (non-obsolete-error-filter)] 
----------------------------------
jit/startup time      : 51.3379ms
moved types parse time: 39ms
candidates parse time : 0ms
C# parse time         : 141ms
candidates check time : 34ms
console write time    : 0ms

[api-updater (non-obsolete-error-filter)] 03/10/2021 10:12:36 : Starting G:/Program Files/Unity/Hub/Editor/2020.3.13f1/Editor/Data/Tools/ScriptUpdater/APIUpdater.NonObsoleteApiUpdaterDetector.exe
[api-updater (non-obsolete-error-filter)] 
----------------------------------
jit/startup time      : 51.8613ms
moved types parse time: 39ms
candidates parse time : 0ms
C# parse time         : 195ms
candidates check time : 46ms
console write time    : 0ms

[api-updater (non-obsolete-error-filter)] 03/10/2021 10:12:46 : Starting G:/Program Files/Unity/Hub/Editor/2020.3.13f1/Editor/Data/Tools/ScriptUpdater/APIUpdater.NonObsoleteApiUpdaterDetector.exe
[api-updater (non-obsolete-error-filter)] 
----------------------------------
jit/startup time      : 51.8613ms
moved types parse time: 39ms
candidates parse time : 0ms
C# parse time         : 152ms
candidates check time : 41ms
console write time    : 0ms

[api-updater (non-obsolete-error-filter)] 03/10/2021 10:35:38 : Starting G:/Program Files/Unity/Hub/Editor/2020.3.13f1/Editor/Data/Tools/ScriptUpdater/APIUpdater.NonObsoleteApiUpdaterDetector.exe
[api-updater (non-obsolete-error-filter)] 
----------------------------------
jit/startup time      : 52.8588ms
moved types parse time: 39ms
candidates parse time : 0ms
C# parse time         : 132ms
candidates check time : 37ms
console write time    : 0ms

[api-updater (non-obsolete-error-filter)] 03/10/2021 11:31:42 : Starting G:/Program Files/Unity/Hub/Editor/2020.3.13f1/Editor/Data/Tools/ScriptUpdater/APIUpdater.NonObsoleteApiUpdaterDetector.exe
[api-updater (non-obsolete-error-filter)] 
----------------------------------
jit/startup time      : 56.4172ms
moved types parse time: 40ms
candidates parse time : 0ms
C# parse time         : 139ms
candidates check time : 37ms
console write time    : 0ms

[api-updater (non-obsolete-error-filter)] 03/10/2021 11:31:47 : Starting G:/Program Files/Unity/Hub/Editor/2020.3.13f1/Editor/Data/Tools/ScriptUpdater/APIUpdater.NonObsoleteApiUpdaterDetector.exe
[api-updater (non-obsolete-error-filter)] 
----------------------------------
jit/startup time      : 49.5064ms
moved types parse time: 39ms
candidates parse time : 0ms
C# parse time         : 132ms
candidates check time : 33ms
console write time    : 0ms

[api-updater (non-obsolete-error-filter)] 03/10/2021 13:44:44 : Starting G:/Program Files/Unity/Hub/Editor/2020.3.13f1/Editor/Data/Tools/ScriptUpdater/APIUpdater.NonObsoleteApiUpdaterDetector.exe
[api-updater (non-obsolete-error-filter)] 
----------------------------------
jit/startup time      : 57.8446ms
moved types parse time: 40ms
candidates parse time : 0ms
C# parse time         : 158ms
candidates check time : 45ms
console write time    : 0ms

[api-updater (non-obsolete-error-filter)] 03/10/2021 14:56:17 : Starting G:/Program Files/Unity/Hub/Editor/2020.3.13f1/Editor/Data/Tools/ScriptUpdater/APIUpdater.NonObsoleteApiUpdaterDetector.exe
[api-updater (non-obsolete-error-filter)] 
----------------------------------
jit/startup time      : 59.8418ms
moved types parse time: 41ms
candidates parse time : 0ms
C# parse time         : 152ms
candidates check time : 59ms
console write time    : 0ms

[api-updater (non-obsolete-error-filter)] 03/10/2021 14:59:02 : Starting G:/Program Files/Unity/Hub/Editor/2020.3.13f1/Editor/Data/Tools/ScriptUpdater/APIUpdater.NonObsoleteApiUpdaterDetector.exe
[api-updater (non-obsolete-error-filter)] 
----------------------------------
jit/startup time      : 52.8589ms
moved types parse time: 41ms
candidates parse time : 1ms
C# parse time         : 168ms
candidates check time : 49ms
console write time    : 0ms

[api-updater (non-obsolete-error-filter)] 03/10/2021 15:37:24 : Starting G:/Program Files/Unity/Hub/Editor/2020.3.13f1/Editor/Data/Tools/ScriptUpdater/APIUpdater.NonObsoleteApiUpdaterDetector.exe
[api-updater (non-obsolete-error-filter)] 
----------------------------------
jit/startup time      : 59.8408ms
moved types parse time: 40ms
candidates parse time : 0ms
C# parse time         : 156ms
candidates check time : 37ms
console write time    : 0ms

[api-updater (non-obsolete-error-filter)] 03/10/2021 15:37:29 : Starting G:/Program Files/Unity/Hub/Editor/2020.3.13f1/Editor/Data/Tools/ScriptUpdater/APIUpdater.NonObsoleteApiUpdaterDetector.exe
[api-updater (non-obsolete-error-filter)] 
----------------------------------
jit/startup time      : 51.8619ms
moved types parse time: 42ms
candidates parse time : 0ms
C# parse time         : 158ms
candidates check time : 36ms
console write time    : 0ms

[api-updater (non-obsolete-error-filter)] 03/10/2021 16:47:07 : Starting G:/Program Files/Unity/Hub/Editor/2020.3.13f1/Editor/Data/Tools/ScriptUpdater/APIUpdater.NonObsoleteApiUpdaterDetector.exe
[api-updater (non-obsolete-error-filter)] 
----------------------------------
jit/startup time      : 77.792ms
moved types parse time: 42ms
candidates parse time : 0ms
C# parse time         : 161ms
candidates check time : 37ms
console write time    : 0ms

[api-updater (non-obsolete-error-filter)] 03/10/2021 16:47:52 : Starting G:/Program Files/Unity/Hub/Editor/2020.3.13f1/Editor/Data/Tools/ScriptUpdater/APIUpdater.NonObsoleteApiUpdaterDetector.exe
[api-updater (non-obsolete-error-filter)] 
----------------------------------
jit/startup time      : 59.8418ms
moved types parse time: 39ms
candidates parse time : 0ms
C# parse time         : 160ms
candidates check time : 38ms
console write time    : 0ms

[api-updater (non-obsolete-error-filter)] 03/10/2021 16:48:29 : Starting G:/Program Files/Unity/Hub/Editor/2020.3.13f1/Editor/Data/Tools/ScriptUpdater/APIUpdater.NonObsoleteApiUpdaterDetector.exe
[api-updater (non-obsolete-error-filter)] 
----------------------------------
jit/startup time      : 65.825ms
moved types parse time: 41ms
candidates parse time : 1ms
C# parse time         : 157ms
candidates check time : 37ms
console write time    : 0ms

